{
	"char_LastName":"YES",
	"char_FirstName":"YES",
	"char_MiddleName":"YES",
	"char_ExtName":"YES",
	"char_SpouseLastName":"YES",
	"char_SpouseFirstName":"YES",
	"char_SpouseMiddleName":"YES",
	"char_SpouseExtName":"YES",
	"char_FatherLastName":"YES",
	"char_FatherFirstName":"YES",
	"char_FatherMiddleName":"YES",
	"char_FatherExtName":"YES",
	"char_EmployersName":"YES",
	"char_MotherLastName":"YES",
	"char_MotherFirstName":"YES",
	"char_MotherMiddleName":"YES",
	"char_MotherExtName":"YES",
    "LastName":"YES",
	"FirstName":"YES",
	"MiddleName":"YES",
	"ExtName":"YES",
	"SpouseLastName":"YES",
	"SpouseFirstName":"YES",
	"SpouseMiddleName":"YES",
	"SpouseExtName":"YES",
	"FatherLastName":"YES",
	"FatherFirstName":"YES",
	"FatherMiddleName":"YES",
	"FatherExtName":"YES",
	"EmployersName":"YES",
	"MotherLastName":"YES",
	"MotherFirstName":"YES",
	"MotherMiddleName":"YES",
	"MotherExtName":"YES",
	"FullName":"YES"
}