{
   "TabName": {
      "AllTabs": {
         "dbTable":"ams_Employees",
         "dbField": [
         	["EmployeesRefId","RefId","","int","Employees"],
            ["HiredDate","date_HiredDate","","date","Date Hired"],
            ["AssumptionDate","date_AssumptionDate","","date","Date Assumption"],
            ["ResignedDate","date_ResignedDate","","date","Date Resigned"],
            ["RehiredDate","date_RehiredDate","","date","Date Re-employment"],
            ["JOStartDate","date_JOStartDate","","date","JO Start Date"],
            ["JOEndDate","date_JOEndDate","","date","JO End Date"],
			["AgencyId","sint_AgencyId","","char","Agency ID"],
			["PositionItemRefId","sint_PositionItemRefId","0","int","Position Item"],
			["PositionRefId","sint_PositionRefId","0","int","Position"],
			["OfficeRefId","sint_OfficeRefId","0","int","Office"],
			["DepartmentRefId","sint_DepartmentRefId","0","int","Department"],
			["DivisionRefId","sint_DivisionRefId","0","int","Division"],
			["EmpStatusRefId","sint_EmpStatusRefId","0","int","Emp. Status"],
			["SalaryGradeRefId","sint_SalaryGradeRefId","0","int","Salary Grade"],
			["StepIncrementRefId","sint_StepIncrementRefId","0","int","Step Increment"],
			["SalaryAmount","deci_SalaryAmount","0","int","Salary Amount"],
			["PayPeriod","char_PayPeriod","","char","Pay Period"],
			["StartDate","date_StartDate","","date","Start Date"],
			["EndDate","date_EndDate","","date","End Date"],
			["BiometricsID","char_BiometricsID","","char","Biometrics ID"],
			["CutOffRefId","sint_CutOffRefId","0","int","Cut Off"],
			["WorkScheduleRefId","sint_WorkScheduleRefId","0","int","Work Schedule"],
			["LeavePolicyGroupRefId","sint_LeavePolicyGroupRefId","0","int","Leave Policy"],
			["OverTimePolicyGroupRefId","sint_OverTimePolicyGroupRefId","0","int","Over-Time Policy"],
			["IsAutoDTR","sint_IsAutoDTR","0","int","Auto DTR"]
			]
      }
   }
}