{
   "Module": "Module.AMS.Request.ChangeShift",
   "Module.AMS.Request.ChangeShift": {
      "jsonFile":"ReqChangeShift",
      "Module Name": "Request Change Shift",
      "Description": "",
      "Author": "Erwin Mendoza",
      "System": "Attendance Management System",
      "Module Save Type": "Multiple",
      "Module Type": "List",
      "dbTable": "changeshift_request",
      "dbField": [
         [
            "WorkScheduleRefId",
            "sint_WorkScheduleRefId",
            "0",
            "int",
            ""
         ],
         [
            "StartDate",
            "date_StartDate",
            "",
            "date",
            ""
         ],
         [
            "EndDate",
            "date_EndDate",
            "",
            "date",
            ""
         ],
         [
            "FiledDate",
            "date_FiledDate",
            "",
            "date",
            ""
         ],
         [
            "Remarks",
            "char_Remarks",
            "",
            "char",
            ""
         ]
      ],
      "field.EndDate": "EndDate",
      "field.StartDate": "StartDate"
   }
}
         
