{
   "system":{
      "pis": {
         "Author":"Erwin Mendoza", 
         "class":"subMenu",
         "pre":"scrn",
         "member":"pis",
         "side": [
            [
               "Master File",
               "Complete Info of Employees",
               "mMASTERFILE",
               "masterfile.png",
               "MasterFile",
               "Master File"
            ],
            [
               "PDS File",
               " ",
               "m201FILE",
               "201file.png",
               "201File",
               "PDS File"
            ],
            [
               "PDS Update",
               " ",
               "m201UPDATE",
               "201updates.png",
               "201Update",
               "PDS Update"
            ],
            [
               "Employment Information",
               " ",
               "mEMPINFORMATION",
               "empinfo.png",
               "EmployeeInformation",
               "Employment Information"
            ],
            [
               "Employees Attachments",
               " ",
               "mEMPATTACH",
               "empattach.png",
               "EmpAttach",
               "Employees Attachments"
            ],
            [
               "Employees Service Record",
               " ",
               "mEMPMOVEMENT",
               "empmovement.png",
               "EmpMovement",
               "Employees Service Record"
            ],
            [
               "Employees Reset PW",
               "Modules to Refresh or Reset the Password of the Employees",
               "mResetPW",
               "resetpw.png",
               "ResetPW",
               "Employees Password"
            ],
            [
               "PIS Reports",
               " ",
               "mREPORTS",
               "reports.png",
               "Reports",
               "Reports"
            ],
            [
               "File Manager",
               " ",
               "mFILEMANAGER",
               "filemanager.png",
               "FileManager",
               "File Manager"
            ],
            [
               "Accountability",
               " ",
               "mACCOUNTABILITY",
               "requestfor.png",
               "Accountability",
               "Accountablitiy"
            ],
            [
               "ID",
               " ",
               "mID",
               "unit.png",
               "ID",
               "ID"
            ],
            [
               "Recognition And Reward",
               " ",
               "mRAR",
               "recognition_icon.png",
               "RecogAndRewards",
               "Recognition And Rewards"
            ]
         ]
      },
      "ams": {

      }
   },
   "modules":{
      "mMASTERFILE": {
         "Title":"Employees Master File"
      },
      "m201FILE":{
         "Title": "PDS File"
      },
      "m201UPDATE": {
         "Title": "PDS Update"
      },
      "mEMPINFORMATION": {
         "Title": "Employment Information"
      },
      "mEMPATTACH": {
         "Title": "Employees Attachment"
      },
      "mEMPMOVEMENT": {
         "Title": "Employees Movement"
      },
      "mResetPW": {
         "Title": "Employees Reset Password"
      },
      "mREPORTS": {
         "Title": "Reports"
      },
      "mFILEMANAGER": {
         "Title": "File Manager"
      },
      "mACCOUNTABILITY": {
         "Title": "Accountability"
      },
      "mID": {
         "Title": "ID"
      },
      "mRAR": {
         "Title": "Recognition And Rewards"
      }
   }
}